step	loss
0	2.3096868991851807
1	2.2980475425720215
2	2.2877519130706787
3	2.2775890827178955
4	2.2675676345825195
5	2.2576427459716797
6	2.2476117610931396
7	2.2373106479644775
8	2.226884126663208
9	2.216555595397949
10	2.2060914039611816
11	2.1953139305114746
12	2.184373378753662
13	2.1732523441314697
14	2.161766767501831
15	2.1502606868743896
16	2.138484239578247
17	2.126558542251587
18	2.1143414974212646
19	2.101675033569336
